<define-tag pagetitle>DSA-4977-1 xen</define-tag>
<define-tag report_date>2021-9-20</define-tag>
<define-tag secrefs>CVE-2021-28694 CVE-2021-28695 CVE-2021-28696 CVE-2021-28697 CVE-2021-28698 CVE-2021-28699 CVE-2021-28700 CVE-2021-28701</define-tag>
<define-tag packages>xen</define-tag>
<define-tag isvulnerable>yes</define-tag>
<define-tag fixed>yes</define-tag>
<define-tag fixed-section>no</define-tag>

#use wml::debian::security



</dl>
