<define-tag pagetitle>DSA-4599-1 wordpress</define-tag>
<define-tag report_date>2020-1-08</define-tag>
<define-tag secrefs>CVE-2019-16217 CVE-2019-16218 CVE-2019-16219 CVE-2019-16220 CVE-2019-16221 CVE-2019-16222 CVE-2019-16223 CVE-2019-16780 CVE-2019-16781 CVE-2019-17669 CVE-2019-17671 CVE-2019-17672 CVE-2019-17673 CVE-2019-17674 CVE-2019-17675 CVE-2019-20041 CVE-2019-20042 CVE-2019-20043 Bug#939543 Bug#942459 Bug#946905</define-tag>
<define-tag packages>wordpress</define-tag>
<define-tag isvulnerable>yes</define-tag>
<define-tag fixed>yes</define-tag>
<define-tag fixed-section>no</define-tag>

#use wml::debian::security



</dl>
