<define-tag pagetitle>DSA-4693-1 drupal7</define-tag>
<define-tag report_date>2020-5-26</define-tag>
<define-tag secrefs>CVE-2020-11022 CVE-2020-11023 CVE-2020-13662</define-tag>
<define-tag packages>drupal7</define-tag>
<define-tag isvulnerable>yes</define-tag>
<define-tag fixed>yes</define-tag>
<define-tag fixed-section>no</define-tag>

#use wml::debian::security



</dl>
