<define-tag pagetitle>DSA-4734-1 openjdk-11</define-tag>
<define-tag report_date>2020-7-26</define-tag>
<define-tag secrefs>CVE-2020-14556 CVE-2020-14562 CVE-2020-14573 CVE-2020-14577 CVE-2020-14578 CVE-2020-14579 CVE-2020-14581 CVE-2020-14583 CVE-2020-14593 CVE-2020-14621</define-tag>
<define-tag packages>openjdk-11</define-tag>
<define-tag isvulnerable>yes</define-tag>
<define-tag fixed>yes</define-tag>
<define-tag fixed-section>no</define-tag>

#use wml::debian::security



</dl>
