<define-tag pagetitle>DLA-2816-1 icinga2</define-tag>
<define-tag report_date>2021-11-10</define-tag>
<define-tag secrefs>CVE-2021-32739 CVE-2021-32743 CVE-2021-37698 Bug#991494</define-tag>
<define-tag packages>icinga2</define-tag>
<define-tag isvulnerable>yes</define-tag>
<define-tag fixed>yes</define-tag>
<define-tag fixed-section>no</define-tag>

#use wml::debian::security

