<define-tag pagetitle>DLA-2564-1 php-horde-text-filter</define-tag>
<define-tag report_date>2021-02-18</define-tag>
<define-tag secrefs>CVE-2021-26929 Bug#982769</define-tag>
<define-tag packages>php-horde-text-filter</define-tag>
<define-tag isvulnerable>yes</define-tag>
<define-tag fixed>yes</define-tag>
<define-tag fixed-section>no</define-tag>

#use wml::debian::security

