<define-tag pagetitle>DLA-2772-1 taglib</define-tag>
<define-tag report_date>2021-09-30</define-tag>
<define-tag secrefs>CVE-2017-12678 CVE-2018-11439 Bug#871511 Bug#903847 Bug#915281 Bug#871511 Bug#903847</define-tag>
<define-tag packages>taglib</define-tag>
<define-tag isvulnerable>yes</define-tag>
<define-tag fixed>yes</define-tag>
<define-tag fixed-section>no</define-tag>

#use wml::debian::security

