<define-tag pagetitle>DLA-2631-1 zabbix</define-tag>
<define-tag report_date>2021-04-21</define-tag>
<define-tag secrefs>CVE-2019-15132 CVE-2020-15803 Bug#935027 Bug#966146</define-tag>
<define-tag packages>zabbix</define-tag>
<define-tag isvulnerable>yes</define-tag>
<define-tag fixed>yes</define-tag>
<define-tag fixed-section>no</define-tag>

#use wml::debian::security

