<define-tag pagetitle>DLA-2730-1 libpam-tacplus</define-tag>
<define-tag report_date>2021-08-04</define-tag>
<define-tag secrefs>CVE-2020-13881 Bug#962830</define-tag>
<define-tag packages>libpam-tacplus</define-tag>
<define-tag isvulnerable>yes</define-tag>
<define-tag fixed>yes</define-tag>
<define-tag fixed-section>no</define-tag>

#use wml::debian::security

