<define-tag pagetitle>DLA-2677-1 libwebp</define-tag>
<define-tag report_date>2021-06-05</define-tag>
<define-tag secrefs>CVE-2018-25009 CVE-2018-25010 CVE-2018-25011 CVE-2018-25012 CVE-2018-25013 CVE-2018-25014 CVE-2020-36328 CVE-2020-36329 CVE-2020-36330 CVE-2020-36331</define-tag>
<define-tag packages>libwebp</define-tag>
<define-tag isvulnerable>yes</define-tag>
<define-tag fixed>yes</define-tag>
<define-tag fixed-section>no</define-tag>

#use wml::debian::security

