<define-tag pagetitle>DLA-847-1 texlive-base</define-tag>
<define-tag report_date>2017-3-8</define-tag>
<define-tag secrefs>CVE-2016-10243</define-tag>
<define-tag packages>texlive-base</define-tag>
<define-tag isvulnerable>yes</define-tag>
<define-tag fixed>yes</define-tag>
<define-tag fixed-section>no</define-tag>

#use wml::debian::security

