<define-tag pagetitle>DLA-2278-1 squid3</define-tag>
<define-tag report_date>2020-7-10</define-tag>
<define-tag secrefs>CVE-2018-19132 CVE-2019-12519 CVE-2019-12520 CVE-2019-12521 CVE-2019-12523 CVE-2019-12524 CVE-2019-12525 CVE-2019-12526 CVE-2019-12528 CVE-2019-12529 CVE-2019-13345 CVE-2019-18676 CVE-2019-18677 CVE-2019-18678 CVE-2019-18679 CVE-2019-18860 CVE-2020-8449 CVE-2020-8450 CVE-2020-11945 Bug#950802 Bug#931478 Bug#950925 Bug#912294</define-tag>
<define-tag packages>squid3</define-tag>
<define-tag isvulnerable>yes</define-tag>
<define-tag fixed>yes</define-tag>
<define-tag fixed-section>no</define-tag>

#use wml::debian::security

