<define-tag pagetitle>DLA-2316-1 ruby-kramdown</define-tag>
<define-tag report_date>2020-08-09</define-tag>
<define-tag secrefs>CVE-2020-14001</define-tag>
<define-tag packages>ruby-kramdown</define-tag>
<define-tag isvulnerable>yes</define-tag>
<define-tag fixed>yes</define-tag>
<define-tag fixed-section>no</define-tag>

#use wml::debian::security

