<define-tag pagetitle>DLA-2193-1 openjdk-7</define-tag>
<define-tag report_date>2020-04-28</define-tag>
<define-tag secrefs>CVE-2020-2756 CVE-2020-2757 CVE-2020-2773 CVE-2020-2781 CVE-2020-2800 CVE-2020-2803 CVE-2020-2805 CVE-2020-2830</define-tag>
<define-tag packages>openjdk-7</define-tag>
<define-tag isvulnerable>yes</define-tag>
<define-tag fixed>yes</define-tag>
<define-tag fixed-section>no</define-tag>

#use wml::debian::security

