<define-tag pagetitle>DLA-1396-1 redis</define-tag>
<define-tag report_date>2018-6-26</define-tag>
<define-tag secrefs>CVE-2018-11218 CVE-2018-11219 CVE-2018-12326 Bug##901495 Bug##902410</define-tag>
<define-tag packages>redis</define-tag>
<define-tag isvulnerable>yes</define-tag>
<define-tag fixed>yes</define-tag>
<define-tag fixed-section>no</define-tag>

#use wml::debian::security

