#include "$(ENGLISHDIR)/partners/partners.def"

<partnertable>
 <typeofpartner <developmentpartner>>

 <div>
 <partnerlogo "Hewlett-Packard" logo_hp.png "http://www.hp.com/">
 <partnerdesc>
 <hp1>
 <hp2>
 </partnerdesc>
 </div>

 <hr>

 <div>
 <partnerlogo "Thomas-Krenn.AG" thomas-krenn.png "http://www.thomas-krenn.com/">
 <partnerdesc>
 <thomaskrenn1>
 <thomaskrenn2>
 </partnerdesc>
 </div>


 <hr>

 <div> 
 <partnerlogo "trustsec IT solutions GmbH" trustsec.png "http://www.trustsec.de/">
 <partnerdesc>
 <trustsec1>
 <trustsec2>
 </partnerdesc>
 </div>

 <hr>

 <div>
 <partnerlogo "credativ GmbH" credativ.png "http://www.credativ.com/">
 <partnerdesc>
 <credativ1>
 <credativ2>
 </partnerdesc>
 </div>

 <hr>

 <div>
 <partnerlogo "Skolelinux" skolelinux.png "http://www.skolelinux.org/">
 <partnerdesc>
 <skolelinux1>
 <skolelinux2>
 </partnerdesc>
 </div>

 <hr>

 <div>
 <partnerlogo "Genesi" genesi-logo.png "http://www.genesi-usa.com/">
 <partnerdesc>
 <genesi1>
 <genesi2>
 </partnerdesc>
 </div>

 <hr>

 <div>
 <partnerlogo "Eaton" logo_eaton.png "http://www.eaton.com/">
 <partnerdesc>
 <eaton1>
 <eaton2>
 </partnerdesc>
 </div>

 <hr>

 <div> 
 <partnerlogo "Simtec Electronics" simtec.gif "http://www.simtec.co.uk/">
 <partnerdesc>
 <simtec1>
 <simtec2>
 </partnerdesc>
 </div>

 <hr>

 <div>
 <partnerlogo "Loongson" loongson.png "http://www.loongson.cn">
 <partnerdesc>
 <loongson1>
 <loongson2>
 </partnerdesc>
 </div>

 <hr>
</partnertable>

<partnertable>
 <typeofpartner <financialpartner>>

 <partnerdisplaytable>

 <partnertablerow>

 <partnerlogo2 "Open Source Press" opensourcepress.png "http://www.opensourcepress.de/">
 <partnerdesc2>
 <opensourcepress1>
 <opensourcepress2>
 </partnerdesc2>

 </partnertablerow>

 <partnertablerow>
 <partnerlogo2 "No Starch Press" nostarch.png "http://www.nostarch.com/">
 <partnerdesc2>
 <nostarch1>
 </partnerdesc2>
 </partnertablerow>

</partnerdisplaytable>

<hr>

</partnertable>


<partnertable>
<typeofpartner <servicepartner>>

<div>
<partnerlogo "Brainfood" brainfood.jpg "http://www.brainfood.com/">
<partnerdesc>
<brainfood1>
<brainfood2>
 </partnerdesc>
 </div>

 <hr>

 <div>
 <partnerlogo "Linux Central" linuxcentral.gif "http://www.linuxcentral.com/">
 <partnerdesc>
 <linuxcentral1>
 <linuxcentral2>
 </partnerdesc>
 </div>

 <hr>

 <div>
 <partnerlogo "RapidSwitch" rapidswitch.gif "http://www.rapidswitch.com/">
 <partnerdesc>
 <rapidswitch1>
 <rapidswitch2>
 </partnerdesc>
 </div>

 <hr>

 <div>
 <partnerlogo "Oregon State University Open Source Lab" osuosl.png "http://osuosl.org/">
 <partnerdesc>
 <osuosl1>
 <osuosl2>
 </partnerdesc>
 </div>


 <hr>

 <div>
 <partnerlogo "Telegraaf Media ICT BV" tmi_logo.png "http://www.telegraaf.nl/">
 <partnerdesc>
 <telegraaf1>
 <telegraaf2>
 <telegraaf3>
 </partnerdesc>
 </div>

 <hr>
 
 <div>
 <partnerlogo "Metropolitan Area Network Darmstadt" manda_logo.png "http://www.man-da.de/">
 <partnerdesc>
 <man-da1>
 <man-da2>
 </partnerdesc>
 </div>

 <hr>
 
 <div>
 <partnerlogo "Bytemark" bytemark_logo.png "https://www.bytemark.co.uk/r/deb-partners/">
 <partnerdesc>
 <bytemark1>
 <bytemark2>
 </partnerdesc>
 </div>
 
 <hr>
 
 <div>
 <partnerlogo "1und1" 1und1.png "http://www.1und1.info/">
 <partnerdesc>
 <oneandone1>
 <oneandone2>
 </partnerdesc>
 </div>
 
 <hr>
 
 <div>
 <partnerlogo "DG-i" dgi_logo.png "http://www.dg-i.net/">
 <partnerdesc>
 <dg-i1>
 <dg-i2>
 </partnerdesc>

 </div>

 <hr>

 <div>
 <partnerlogo "Mythic Beasts" mythic-beasts.png "http://www.mythic-beasts.com">
 <partnerdesc>
 <mythic1>
 </partnerdesc>


 </div>
 
 
</partnertable>
