<define-tag pagetitle>DSA-4486-1 openjdk-11</define-tag>
<define-tag report_date>2019-7-21</define-tag>
<define-tag secrefs>CVE-2019-2745 CVE-2019-2762 CVE-2019-2769 CVE-2019-2786 CVE-2019-2816 CVE-2019-2818 CVE-2019-2821</define-tag>
<define-tag packages>openjdk-11</define-tag>
<define-tag isvulnerable>yes</define-tag>
<define-tag fixed>yes</define-tag>
<define-tag fixed-section>no</define-tag>

#use wml::debian::security



</dl>
