<define-tag pagetitle>DLA-377-1 ia32-libs</define-tag>
<define-tag report_date>2016-1-1</define-tag>
<define-tag packages>ia32-libs</define-tag>
<define-tag isvulnerable>yes</define-tag>
<define-tag fixed>yes</define-tag>
<define-tag fixed-section>no</define-tag>

#use wml::debian::security

