<define-tag pagetitle>DLA-1994-1 postgresql-common</define-tag>
<define-tag report_date>2019-11-14</define-tag>
<define-tag secrefs>CVE-2019-3466</define-tag>
<define-tag packages>postgresql-common</define-tag>
<define-tag isvulnerable>yes</define-tag>
<define-tag fixed>yes</define-tag>
<define-tag fixed-section>no</define-tag>

#use wml::debian::security

