<define-tag pagetitle>DLA-1732-1 openjdk-7</define-tag>
<define-tag report_date>2019-3-27</define-tag>
<define-tag secrefs>CVE-2019-2422</define-tag>
<define-tag packages>openjdk-7</define-tag>
<define-tag isvulnerable>yes</define-tag>
<define-tag fixed>yes</define-tag>
<define-tag fixed-section>no</define-tag>

#use wml::debian::security

