<define-tag pagetitle>DLA-1865-1 sdl-image1.2</define-tag>
<define-tag report_date>2019-07-27</define-tag>
<define-tag secrefs>CVE-2018-3977 CVE-2019-5051 CVE-2019-5052 CVE-2019-7635 CVE-2019-12216 CVE-2019-12217 CVE-2019-12218 CVE-2019-12219 CVE-2019-12220 CVE-2019-12221 CVE-2019-12222</define-tag>
<define-tag packages>sdl-image1.2</define-tag>
<define-tag isvulnerable>yes</define-tag>
<define-tag fixed>yes</define-tag>
<define-tag fixed-section>no</define-tag>

#use wml::debian::security

