<define-tag pagetitle>DLA-707-1 sudo</define-tag>
<define-tag report_date>2016-11-14</define-tag>
<define-tag secrefs>CVE-2016-7032 CVE-2016-7076 Bug#842507</define-tag>
<define-tag packages>sudo</define-tag>
<define-tag isvulnerable>yes</define-tag>
<define-tag fixed>yes</define-tag>
<define-tag fixed-section>no</define-tag>

#use wml::debian::security

